/home/nassereddine/workspace/CountTheNumberOfTripForEachDirection/src/main/java/com/tcb/CountTheNumberOfTripForEachDirection/NumberOfTripsEachDirectionDriver.java
/home/nassereddine/workspace/CountTheNumberOfTripForEachDirection/src/main/java/com/tcb/CountTheNumberOfTripForEachDirection/NumberOfTripsEachDirectionMapper.java
/home/nassereddine/workspace/CountTheNumberOfTripForEachDirection/src/main/java/com/tcb/CountTheNumberOfTripForEachDirection/NumberOfTripsEachDirectionReducer.java
/home/nassereddine/workspace/CountTheNumberOfTripForEachDirection/src/main/java/com/tcb/CountTheNumberOfTripForEachDirection/App.java
